100, 0.000316963
101, 0.000333731
102, 0.000355114
103, 0.000374956
104, 0.000354307
105, 0.000384536
106, 0.000403895
107, 0.000418053
108, 0.000206291
109, 0.000422017
110, 0.000455615
111, 0.000299177
112, 0.000226516
113, 0.000484148
114, 0.000519124
115, 0.000264674
116, 0.000513961
117, 0.000535507
118, 0.000551295
119, 0.000594689
120, 0.000378319
121, 0.000296435
122, 0.000653216
123, 0.000804461
124, 0.000630875
125, 0.000650977
126, 0.000854807
127, 0.000694707
128, 0.00071565
129, 0.00070375
130, 0.000755047
131, 0.000776679
132, 0.000746483
133, 0.000772385
134, 0.000810236
135, 0.000842429
136, 0.000804413
137, 0.000848959
138, 0.00045418
139, 0.000932027
140, 0.000883672
141, 0.000467555
142, 0.000990127
143, 0.00127963
144, 0.000981088
145, 0.000999305
146, 0.00137047
147, 0.00108422
148, 0.00105997
149, 0.00109125
150, 0.00113012
151, 0.00118024
152, 0.00114129
153, 0.00118066
154, 0.00125037
155, 0.00128254
156, 0.00123745
157, 0.00129593
158, 0.00135129
159, 0.00138466
160, 0.00136041
161, 0.000715743
162, 0.000747561
163, 0.0016575
164, 0.00184627
165, 0.0018012
166, 0.00105425
167, 0.00204792
168, 0.00198764
169, 0.00204888
170, 0.00177656
171, 0.00221841
172, 0.00198035
173, 0.00220756
174, 0.00194302
175, 0.00201603
176, 0.00089354
177, 0.00187493
178, 0.00210514
179, 0.00101376
180, 0.000983129
181, 0.00217286
182, 0.00210692
183, 0.00211347
184, 0.00203431
185, 0.00210325
186, 0.00217577
187, 0.00223625
188, 0.00219339
189, 0.00224964
190, 0.00230082
191, 0.00237875
192, 0.00237294
193, 0.00240173
194, 0.0029604
195, 0.00131328
196, 0.00270678
197, 0.00282158
198, 0.00261885
199, 0.00271206
200, 0.00266429
201, 0.00186258
202, 0.00277213
203, 0.00368351
204, 0.00357845
205, 0.00379668
206, 0.00297386
207, 0.00347313
208, 0.00326426
209, 0.00305331
210, 0.00314259
211, 0.00332052
212, 0.00313806
213, 0.00323002
214, 0.00331543
215, 0.00339392
216, 0.00331814
217, 0.00340535
218, 0.00350658
219, 0.0036061
220, 0.00350602
221, 0.00359444
222, 0.0037936
223, 0.00458569
224, 0.00476347
225, 0.00193134
226, 0.00483174
227, 0.00472037
228, 0.00427394
229, 0.00431229
230, 0.00526864
231, 0.00424451
232, 0.00431478
233, 0.00444545
234, 0.00490288
235, 0.00485323
236, 0.00479528
237, 0.00338602
238, 0.00460709
239, 0.00480763
240, 0.00457469
241, 0.00482444
242, 0.00480759
243, 0.00249829
244, 0.00483558
245, 0.00497191
246, 0.00558456
247, 0.00567735
248, 0.00257036
249, 0.0062236
250, 0.00613536
251, 0.00551703
252, 0.00639006
253, 0.007109
254, 0.00727049
255, 0.00291376
256, 0.00580067
257, 0.00644486
258, 0.00599945
259, 0.0070795
260, 0.00754078
261, 0.00706919
262, 0.00630367
263, 0.00331234
264, 0.0073708
265, 0.0065869
266, 0.0065856
267, 0.00677909
268, 0.00655923
269, 0.0069586
270, 0.00736055
271, 0.00731149
272, 0.00698989
273, 0.00783732
274, 0.00757388
275, 0.00824638
276, 0.00778092
277, 0.00837919
278, 0.00757586
279, 0.00858452
280, 0.0074599
281, 0.00849858
282, 0.00854679
283, 0.00822086
284, 0.0076825
285, 0.00804586
286, 0.00828085
287, 0.00840481
288, 0.00805703
289, 0.00841526
290, 0.00851622
291, 0.00876447
292, 0.00841425
293, 0.00898308
294, 0.00527764
295, 0.00466895
296, 0.00897671
297, 0.00564777
298, 0.0114151
299, 0.0112808
300, 0.0108382
301, 0.0100067
302, 0.0111592
303, 0.0101889
304, 0.0115271
305, 0.0109404
306, 0.0102199
307, 0.0103257
308, 0.00983152
309, 0.0104952
310, 0.0103878
311, 0.0111038
312, 0.0106353
313, 0.0117083
314, 0.0125417
315, 0.0139646
316, 0.0111925
317, 0.0119446
318, 0.0130188
319, 0.0123722
320, 0.0123703
321, 0.00957701
322, 0.0138852
323, 0.0126621
324, 0.013416
325, 0.00614333
326, 0.0143558
327, 0.0132465
328, 0.0135501
329, 0.0133827
330, 0.0129925
331, 0.0150037
332, 0.0134563
333, 0.0141393
334, 0.013398
335, 0.014527
336, 0.0138271
337, 0.0146214
338, 0.00693972
339, 0.0139383
340, 0.013443
341, 0.0148221
342, 0.01472
343, 0.0145942
344, 0.00705802
345, 0.0154735
346, 0.0157544
347, 0.0157887
348, 0.0155558
349, 0.0162095
350, 0.0154479
351, 0.0167966
352, 0.00759973
353, 0.0170047
354, 0.00796678
355, 0.0174062
356, 0.0160504
357, 0.0174647
358, 0.0168744
359, 0.0170336
360, 0.00804888
361, 0.0166714
362, 0.0166564
363, 0.0172439
364, 0.0163229
365, 0.0171935
366, 0.0173092
367, 0.0181993
368, 0.130847
369, 0.0179466
370, 0.0181134
371, 0.0189449
372, 0.0203158
373, 0.0194405
374, 0.0202402
375, 0.0204811
376, 0.0199242
377, 0.00969822
378, 0.0201249
379, 0.0219787
380, 0.0187129
381, 0.0196928
382, 0.0197311
383, 0.0202249
384, 0.0192954
385, 0.0204704
386, 0.0213883
387, 0.0214833
388, 0.0229913
389, 0.0225783
390, 0.0220887
391, 0.02318
392, 0.0104431
393, 0.0137624
394, 0.0231702
395, 0.0246424
396, 0.0218067
397, 0.0243117
398, 0.0246395
399, 0.0258352
400, 0.0242102
401, 0.0262588
402, 0.0240537
403, 0.0257826
404, 0.022396
405, 0.023827
406, 0.0236751
407, 0.0251809
408, 0.0231668
409, 0.0250062
410, 0.0250645
411, 0.0257178
412, 0.0239581
413, 0.0257671
414, 0.0252531
415, 0.026132
416, 0.0244466
417, 0.0262018
418, 0.0259816
419, 0.0272268
420, 0.0256604
421, 0.0300619
422, 0.0285956
423, 0.0302053
424, 0.0270071
425, 0.0313766
426, 0.0275183
427, 0.0290578
428, 0.0269554
429, 0.0297449
430, 0.0283427
431, 0.0298544
432, 0.0274583
433, 0.0311231
434, 0.0306618
435, 0.019385
436, 0.028164
437, 0.0312403
438, 0.0302212
439, 0.0317079
440, 0.0292848
441, 0.0323092
442, 0.0310653
443, 0.0329572
444, 0.0297225
445, 0.0327399
446, 0.031784
447, 0.0329538
448, 0.0306963
449, 0.034009
450, 0.032901
451, 0.0348607
452, 0.0314558
453, 0.0378506
454, 0.0372172
455, 0.0365647
456, 0.0354752
457, 0.0380804
458, 0.0383491
459, 0.0249832
460, 0.0169547
461, 0.040113
462, 0.0378452
463, 0.0197146
464, 0.0373979
465, 0.0418118
466, 0.0387215
467, 0.0416427
468, 0.0395123
469, 0.0405762
470, 0.0405089
471, 0.04268
472, 0.0382395
473, 0.0427965
474, 0.0421989
475, 0.0444082
476, 0.0394182
477, 0.0443072
478, 0.0232091
479, 0.0432947
480, 0.0380552
481, 0.0421007
482, 0.0407105
483, 0.0426755
484, 0.0387653
485, 0.0415663
486, 0.0413669
487, 0.0451194
488, 0.0425193
489, 0.0447656
490, 0.0266222
491, 0.0464442
492, 0.0278672
493, 0.0445659
494, 0.0447233
495, 0.0463748
496, 0.0425185
497, 0.0458544
498, 0.0279579
499, 0.0464334
